{
	"info": {
		"_postman_id": "b2e64f4e-15ee-487e-baf2-f81d161d197e",
		"name": "telu covid",
		"schema": "https://schema.getpostman.com/json/collection/v2.1.0/collection.json"
	},
	"item": [
		{
			"name": "http://covid.rasyid.in/api/indonesia",
			"request": {
				"method": "GET",
				"header": [],
				"url": {
					"raw": "http://covid.rasyid.in/api/indonesia",
					"protocol": "http",
					"host": [
						"covid",
						"rasyid",
						"in"
					],
					"path": [
						"api",
						"indonesia"
					]
				}
			},
			"response": []
		},
		{
			"name": "http://covid.rasyid.in/api/indonesia/provinsi",
			"request": {
				"method": "GET",
				"header": [],
				"url": {
					"raw": "http://covid.rasyid.in/api/indonesia/provinsi",
					"protocol": "http",
					"host": [
						"covid",
						"rasyid",
						"in"
					],
					"path": [
						"api",
						"indonesia",
						"provinsi"
					]
				}
			},
			"response": []
		},
		{
			"name": "http://covid.rasyid.in/api/positif",
			"request": {
				"method": "GET",
				"header": [],
				"url": {
					"raw": "http://covid.rasyid.in/api/positif",
					"protocol": "http",
					"host": [
						"covid",
						"rasyid",
						"in"
					],
					"path": [
						"api",
						"positif"
					]
				}
			},
			"response": []
		},
		{
			"name": "http://covid.rasyid.in/api/meninggal",
			"request": {
				"method": "GET",
				"header": [],
				"url": {
					"raw": "http://covid.rasyid.in/api/meninggal",
					"protocol": "http",
					"host": [
						"covid",
						"rasyid",
						"in"
					],
					"path": [
						"api",
						"meninggal"
					]
				}
			},
			"response": []
		},
		{
			"name": "http://covid.rasyid.in/api/sembuh",
			"request": {
				"method": "GET",
				"header": [],
				"url": {
					"raw": "http://covid.rasyid.in/api/sembuh",
					"protocol": "http",
					"host": [
						"covid",
						"rasyid",
						"in"
					],
					"path": [
						"api",
						"sembuh"
					]
				}
			},
			"response": []
		},
		{
			"name": "http://covid.rasyid.in/api/global",
			"request": {
				"method": "GET",
				"header": [],
				"url": {
					"raw": "http://covid.rasyid.in/api/global",
					"protocol": "http",
					"host": [
						"covid",
						"rasyid",
						"in"
					],
					"path": [
						"api",
						"global"
					]
				}
			},
			"response": []
		},
		{
			"name": "http://covid.rasyid.in/api/hariini",
			"request": {
				"method": "GET",
				"header": [],
				"url": {
					"raw": "http://covid.rasyid.in/api/hariini",
					"protocol": "http",
					"host": [
						"covid",
						"rasyid",
						"in"
					],
					"path": [
						"api",
						"hariini"
					]
				}
			},
			"response": []
		},
		{
			"name": "http://telu.rasyid.in/api/allKebijakan",
			"request": {
				"method": "GET",
				"header": [],
				"url": {
					"raw": "http://telu.rasyid.in/api/allKebijakan",
					"protocol": "http",
					"host": [
						"telu",
						"rasyid",
						"in"
					],
					"path": [
						"api",
						"allKebijakan"
					]
				}
			},
			"response": []
		},
		{
			"name": "http://telu.rasyid.in/api/callcentre",
			"request": {
				"method": "GET",
				"header": [],
				"url": {
					"raw": "http://telu.rasyid.in/api/callcentre",
					"protocol": "http",
					"host": [
						"telu",
						"rasyid",
						"in"
					],
					"path": [
						"api",
						"callcentre"
					]
				}
			},
			"response": []
		},
		{
			"name": "http://telu.rasyid.in/api/video",
			"request": {
				"method": "GET",
				"header": [],
				"url": {
					"raw": "http://telu.rasyid.in/api/video",
					"protocol": "http",
					"host": [
						"telu",
						"rasyid",
						"in"
					],
					"path": [
						"api",
						"video"
					]
				}
			},
			"response": []
		},
		{
			"name": "http://telu.rasyid.in/api/faq",
			"request": {
				"method": "GET",
				"header": [],
				"url": {
					"raw": "http://telu.rasyid.in/api/faq",
					"protocol": "http",
					"host": [
						"telu",
						"rasyid",
						"in"
					],
					"path": [
						"api",
						"faq"
					]
				}
			},
			"response": []
		},
		{
			"name": "http://telu.rasyid.in/api/berita",
			"request": {
				"method": "GET",
				"header": [],
				"url": {
					"raw": "http://telu.rasyid.in/api/berita",
					"protocol": "http",
					"host": [
						"telu",
						"rasyid",
						"in"
					],
					"path": [
						"api",
						"berita"
					]
				}
			},
			"response": []
		},
		{
			"name": "http://telu.rasyid.in/api/version",
			"request": {
				"method": "GET",
				"header": [],
				"url": {
					"raw": "http://telu.rasyid.in/api/version",
					"protocol": "http",
					"host": [
						"telu",
						"rasyid",
						"in"
					],
					"path": [
						"api",
						"version"
					]
				}
			},
			"response": []
		}
	],
	"protocolProfileBehavior": {}
}